{
  "repo": {
    "timestamp": 1629824612000,
    "version": 21,
    "name": "\u06a9\u0627\u0631\u062f\u0631\u0645\u0627\u0646\u06cc",
    "icon": "default-repo-icon.png",
    "address": "https://raw.githubusercontent.com/hbsciw/repo/master/fdroid/repo",
    "description": "\u06a9\u0627\u0631\u062f\u0631\u0645\u0627\u0646\u06cc",
    "mirrors": [
      "https://raw.githubusercontent.com/hbsciw/repo/master/fdroid/repo/repo"
    ]
  },
  "requests": {
    "install": [],
    "uninstall": []
  },
  "apps": [
    {
      "suggestedVersionCode": "7",
      "license": "Unknown",
      "name": "Play Tennis",
      "added": 1629523444000,
      "icon": "com.clapfootgames.tennis.7.png",
      "packageName": "com.clapfootgames.tennis",
      "lastUpdated": 1629523448000,
      "localized": {
        "en": {
          "description": "\u0628\u0647\u0628\u0648\u062f \u062a\u0648\u062c\u0647\u060c \u062a\u0642\u0648\u06cc\u062a \u062a\u0639\u0642\u06cc\u0628 \u0628\u06cc\u0646\u0627\u06cc\u06cc\u060c \u062a\u0642\u0648\u06cc\u062a \u06af\u0648\u0634 \u0628 \u0632\u0646\u06af\u06cc",
          "summary": "\u0628\u0647\u0628\u0648\u062f \u062a\u0648\u062c\u0647\u060c \u062a\u0642\u0648\u06cc\u062a \u062a\u0639\u0642\u06cc\u0628 \u0628\u06cc\u0646\u0627\u06cc\u06cc\u060c \u062a\u0642\u0648\u06cc\u062a \u06af\u0648\u0634 \u0628\u0647 \u0632\u0646\u06af\u06cc"
        }
      }
    },
    {
      "suggestedVersionCode": "310",
      "license": "Unknown",
      "name": "Toddler Kids Puzzle - Animals",
      "added": 1629523442000,
      "icon": "com.ibuzz.apk.puzzle4kidsFarm.310.png",
      "packageName": "com.ibuzz.apk.puzzle4kidsFarm",
      "lastUpdated": 1629523450000,
      "localized": {
        "en": {
          "description": "\u062a\u0642\u0648\u06cc\u062a \u062d\u0644 \u0645\u0633\u0627\u0644\u0647\u060c \u0634\u0646\u0627\u062e\u062a \u0631\u0646\u06af\u200c\u0647\u0627 \u0648 \u0645\u0641\u0647\u0648\u0645 \u0647\u0645\u200c\u0631\u0646\u06af\u06cc\u060c \u0627\u06a9\u0645\u0627\u0644 \u062f\u06cc\u062f\u0627\u0631\u06cc\u060c \u0645\u0641\u0647\u0648\u0645 \u0634\u0645\u0627\u0631\u0634",
          "summary": "\u062a\u0642\u0648\u06cc\u062a \u062d\u0644 \u0645\u0633\u0627\u0644\u0647\u060c \u0634\u0646\u0627\u062e\u062a \u0631\u0646\u06af\u200c\u0647\u0627 \u0648 \u0645\u0641\u0647\u0648\u0645 \u0647\u0645\u0631\u0646\u06af\u06cc\u060c \u0627\u06a9\u0645\u0627\u0644 \u062f\u06cc\u062f\u0627\u0631\u06cc\u060c \u0645\u0641\u0647\u0648\u0645 \u0634\u0645\u0627\u0631\u0634"
        }
      }
    }
  ],
  "packages": {
    "com.clapfootgames.tennis": [
      {
        "added": 1629523448000,
        "apkName": "1.apk",
        "features": [
          "android.hardware.touchscreen",
          "android.hardware.touchscreen.multitouch"
        ],
        "hash": "ad30f759b0f00dd1ba38c27faca270a014ac6fe5384f56b67fb0e7b580090e54",
        "hashType": "sha256",
        "minSdkVersion": 9,
        "nativecode": [
          "armeabi",
          "armeabi-v7a"
        ],
        "packageName": "com.clapfootgames.tennis",
        "sig": "35012fa75942421df03dc14ad815ceae",
        "signer": "c068c19772acfec384bf84acec1465de431d63b27880be01a6c6de1980096055",
        "size": 11390024,
        "targetSdkVersion": 19,
        "uses-permission": [
          [
            "android.permission.WAKE_LOCK",
            null
          ],
          [
            "android.permission.INTERNET",
            null
          ],
          [
            "android.permission.VIBRATE",
            null
          ],
          [
            "android.permission.ACCESS_WIFI_STATE",
            null
          ],
          [
            "android.permission.ACCESS_COARSE_LOCATION",
            null
          ],
          [
            "android.permission.ACCESS_NETWORK_STATE",
            null
          ]
        ],
        "versionCode": 7,
        "versionName": "2.2"
      }
    ],
    "com.ibuzz.apk.puzzle4kidsFarm": [
      {
        "added": 1629523450000,
        "apkName": "2.apk",
        "features": [
          "android.hardware.screen.landscape"
        ],
        "hash": "e71c8c054df9d96c002c4e94d8971c1d666df414db69533247ef2dea45d0f65f",
        "hashType": "sha256",
        "minSdkVersion": 17,
        "nativecode": [
          "arm64-v8a"
        ],
        "packageName": "com.ibuzz.apk.puzzle4kidsFarm",
        "sig": "7ca5272acb4957f031bfdecd2de834a6",
        "signer": "507e4267ddd68e97942b9a5e770971290e9cfad98c751b7391fbb332687fa7eb",
        "size": 31666843,
        "targetSdkVersion": 28,
        "uses-permission": [
          [
            "com.android.vending.BILLING",
            null
          ],
          [
            "android.permission.INTERNET",
            null
          ],
          [
            "com.android.vending.CHECK_LICENSE",
            null
          ],
          [
            "android.permission.ACCESS_NETWORK_STATE",
            null
          ],
          [
            "android.permission.WAKE_LOCK",
            null
          ],
          [
            "com.google.android.finsky.permission.BIND_GET_INSTALL_REFERRER_SERVICE",
            null
          ],
          [
            "com.google.android.c2dm.permission.RECEIVE",
            null
          ]
        ],
        "versionCode": 310,
        "versionName": "3.1.0"
      }
    ]
  }
}